<?xml version="1.0" standalone="no"?>
<!DOCTYPE svg PUBLIC "-//W3C//DTD SVG 20010904//EN"
 "http://www.w3.org/TR/2001/REC-SVG-20010904/DTD/svg10.dtd">
<svg version="1.0" xmlns="http://www.w3.org/2000/svg"
 width="576.000000pt" height="576.000000pt" viewBox="0 0 576.000000 576.000000"
 preserveAspectRatio="xMidYMid meet">
<metadata>
Created by potrace 1.11, written by Peter Selinger 2001-2013
</metadata>
<g transform="translate(0.000000,576.000000) scale(0.100000,-0.100000)"
fill="#000000" stroke="none">
<path d="M2189 5115 c-3 -2 -16 -5 -29 -8 -62 -9 -149 -69 -188 -129 -23 -36
-109 -156 -122 -171 -15 -17 -363 -494 -375 -515 -13 -21 -21 -32 -46 -62 -11
-14 -28 -37 -37 -52 -9 -16 -20 -28 -24 -28 -4 0 -8 -6 -8 -14 0 -8 -3 -16 -7
-18 -5 -1 -15 -13 -23 -24 -8 -12 -34 -49 -57 -82 -23 -33 -48 -66 -56 -73 -7
-8 -22 -27 -32 -44 -11 -16 -41 -58 -67 -92 -27 -34 -48 -65 -48 -68 0 -3 -4
-11 -10 -18 -31 -38 -79 -102 -110 -146 -32 -46 -47 -57 -74 -52 -4 1 -29 1
-55 1 -25 0 -55 0 -66 0 -30 2 -33 2 -145 1 -58 0 -112 0 -120 0 -8 0 -31 0
-50 0 -19 -1 -44 -1 -55 0 -11 0 -47 0 -80 0 -33 0 -64 0 -70 0 -53 1 -124
-31 -167 -77 -56 -56 -69 -109 -67 -256 1 -139 14 -180 71 -238 50 -49 110
-69 221 -72 15 -1 27 -4 28 -7 0 -3 2 -15 4 -26 2 -11 8 -58 15 -105 6 -47 13
-98 16 -115 11 -66 21 -138 29 -205 3 -25 8 -56 10 -70 2 -14 7 -45 10 -70 3
-25 10 -70 15 -100 5 -30 11 -73 14 -95 3 -22 7 -57 11 -78 3 -20 7 -53 10
-72 3 -19 7 -51 10 -70 3 -19 7 -51 10 -70 8 -53 13 -92 25 -180 6 -44 13 -91
15 -105 12 -73 14 -88 19 -125 3 -22 8 -60 11 -85 6 -42 8 -59 19 -127 3 -16
8 -52 11 -80 27 -252 218 -442 447 -447 37 0 68 -3 68 -7 0 -3 25 -2 55 1 30
3 55 4 55 1 0 -4 26 -5 57 -4 32 1 58 2 58 3 0 1 28 2 63 3 34 1 62 0 62 -3 0
-3 26 -4 57 -3 32 1 58 2 58 3 0 1 28 2 63 3 34 1 62 0 62 -3 0 -3 26 -4 57
-3 32 1 58 2 58 3 0 1 28 2 63 3 34 1 62 0 62 -3 0 -3 26 -4 57 -3 32 1 58 2
58 3 0 1 28 2 63 3 34 1 62 0 62 -3 0 -3 26 -4 57 -3 32 1 58 2 58 3 0 1 28 2
63 3 34 1 62 0 62 -3 0 -3 26 -4 57 -3 32 1 58 2 58 3 0 1 28 2 63 3 34 1 62
0 62 -3 0 -3 26 -4 57 -3 32 1 58 2 58 3 0 1 28 2 63 3 34 1 62 0 62 -3 0 -3
26 -4 57 -3 32 1 58 2 58 3 0 1 28 2 63 3 34 1 62 0 62 -3 0 -3 26 -4 57 -3
32 1 58 2 58 3 0 1 28 2 63 3 34 1 62 0 62 -3 0 -3 26 -4 57 -3 32 1 58 2 58
3 0 1 28 2 63 3 34 1 62 0 62 -3 0 -3 26 -4 57 -3 32 1 58 2 58 3 0 1 28 2 63
3 34 1 62 0 62 -3 0 -3 26 -4 57 -3 32 1 58 2 58 3 0 1 28 2 63 3 34 1 62 0
62 -3 0 -3 26 -4 57 -3 32 1 58 2 58 3 0 1 28 2 63 3 34 1 62 0 62 -3 0 -3 26
-4 57 -3 32 1 58 2 58 3 0 1 28 2 63 3 34 1 62 -1 62 -4 0 -3 23 -3 50 1 28 4
50 3 50 -1 0 -5 6 -6 13 -4 6 2 37 6 67 9 30 3 62 7 70 9 61 16 81 23 123 45
26 14 47 30 47 34 0 4 4 8 9 8 17 0 79 63 115 118 39 59 70 148 81 232 4 29 9
62 11 74 2 12 6 39 9 61 2 22 6 54 9 70 6 37 14 96 21 155 4 25 8 56 10 70 2
14 11 72 20 129 8 57 18 107 21 112 3 5 0 9 -6 9 -7 0 -8 6 -2 17 6 10 13 43
17 73 4 30 9 62 10 70 2 8 6 40 9 71 4 31 9 67 11 80 3 12 9 59 15 103 6 45
13 92 16 106 3 14 7 41 9 60 2 19 6 49 9 65 3 17 8 53 12 80 3 28 8 61 10 75
2 14 7 45 9 70 3 25 7 56 10 70 5 34 17 110 21 135 1 11 3 22 3 25 1 3 16 7
34 8 150 11 209 41 267 141 23 41 25 297 2 350 -21 50 -73 106 -115 125 -50
22 -97 36 -97 28 0 -4 -53 -6 -117 -4 -139 4 -194 3 -204 -4 -4 -2 -10 0 -14
6 -4 6 -10 8 -14 6 -4 -3 -37 -5 -72 -6 -35 0 -80 0 -99 -1 -19 -1 -42 -1 -50
0 -8 0 -37 2 -65 3 l-49 3 -64 85 c-35 47 -70 93 -78 103 -8 9 -14 22 -14 27
0 6 -4 10 -10 10 -5 0 -10 7 -10 15 0 8 -3 15 -7 15 -5 0 -19 17 -33 38 -14
20 -27 39 -30 42 -4 3 -22 27 -41 55 -18 27 -55 78 -81 112 -27 34 -48 67 -48
72 0 5 -3 11 -8 13 -4 2 -32 37 -62 78 -30 41 -58 80 -62 85 -5 6 -26 35 -47
65 -22 30 -44 60 -48 65 -5 6 -24 32 -43 60 -19 27 -40 56 -47 65 -7 8 -42 56
-77 105 -36 50 -69 95 -73 100 -5 6 -19 26 -33 45 -200 289 -254 333 -410 334
-75 1 -92 -2 -140 -28 -174 -90 -230 -303 -124 -467 16 -24 39 -55 52 -69 12
-14 22 -28 22 -31 0 -5 25 -40 68 -94 4 -5 19 -26 32 -45 13 -19 28 -39 33
-45 4 -5 44 -59 87 -120 44 -60 87 -119 95 -130 9 -11 24 -32 33 -47 9 -16 20
-28 24 -28 4 0 8 -7 8 -15 0 -7 6 -18 13 -22 7 -4 24 -26 39 -48 47 -69 90
-130 97 -135 3 -3 20 -25 36 -50 16 -25 32 -47 35 -50 9 -9 85 -114 103 -142
17 -28 17 -28 -5 -29 -13 -1 -27 -1 -32 0 -4 1 -94 2 -200 1 -105 0 -243 0
-306 1 -151 0 -192 -1 -201 -7 -4 -2 -10 0 -14 6 -4 6 -10 8 -14 6 -4 -3 -37
-5 -72 -6 -35 0 -80 0 -99 -1 -19 -1 -39 -1 -45 -1 -5 1 -100 1 -210 1 -110 1
-249 1 -310 2 -60 0 -117 0 -125 0 -8 -1 -31 -1 -50 0 -41 1 -35 1 -123 -3
-37 -2 -67 -1 -67 2 0 3 -25 5 -55 5 -30 0 -55 -2 -55 -5 0 -3 -51 -4 -112 -2
-62 1 -139 2 -170 2 -32 0 -58 5 -58 10 0 6 4 10 8 10 5 0 17 16 28 35 10 19
21 35 24 35 3 0 16 18 30 40 14 22 28 40 32 40 5 0 8 7 8 15 0 8 3 15 8 15 4
0 14 12 24 28 14 23 190 266 215 297 38 46 93 126 93 134 0 5 4 11 8 13 5 2
69 86 142 188 74 102 138 187 142 188 4 2 8 9 8 16 0 7 9 21 20 31 32 29 61
133 56 201 -7 93 -30 147 -89 207 -58 59 -126 89 -208 93 -37 2 -68 1 -70 -1z
m-354 -2250 c68 -19 130 -80 150 -149 9 -30 15 -92 16 -156 0 -58 0 -112 0
-120 0 -8 0 -80 0 -160 0 -80 0 -152 1 -160 0 -8 -1 -33 -2 -55 -1 -35 -2
-232 -1 -290 1 -11 1 -42 0 -70 0 -27 -1 -95 -1 -150 -1 -85 -5 -106 -25 -142
-46 -83 -111 -125 -199 -129 -155 -6 -258 105 -254 273 1 32 1 63 0 68 -1 6
-2 14 -1 18 1 5 1 34 1 65 -1 86 -1 89 -1 207 0 61 0 144 1 185 1 41 1 82 1
90 0 8 0 47 0 85 0 39 0 93 0 120 0 28 0 88 -1 135 0 180 13 226 78 285 66 60
142 76 237 50z m1119 1 c55 -17 114 -66 141 -119 15 -30 28 -130 27 -207 -1
-39 -1 -239 0 -255 0 -5 -1 -30 -2 -55 -1 -25 -1 -97 -1 -160 0 -63 0 -122 0
-130 0 -21 0 -210 0 -235 1 -88 0 -203 -3 -215 -24 -126 -106 -201 -222 -206
-159 -6 -258 105 -254 284 2 82 2 64 1 202 0 63 0 122 0 130 0 8 0 58 0 110 0
52 0 102 0 110 0 8 0 67 0 130 0 63 0 122 0 130 1 69 0 250 0 270 -2 47 30
118 69 157 67 66 151 86 244 59z m1146 -8 c43 -19 95 -70 116 -114 19 -40 24
-80 24 -194 -1 -47 -1 -110 -1 -140 0 -106 0 -215 -1 -225 0 -5 1 -26 2 -45 1
-35 2 -304 0 -370 0 -19 -1 -98 -3 -175 -2 -123 -5 -145 -24 -182 -46 -87
-114 -128 -213 -128 -76 0 -119 18 -173 71 -63 64 -70 107 -67 424 1 41 1 82
1 90 0 8 0 47 0 85 0 39 0 90 0 115 0 95 0 256 0 275 0 11 0 49 0 85 -1 238 2
274 27 320 33 61 81 99 152 123 27 9 125 0 160 -15z"/>
</g>
</svg>
